<?xml version="1.0" encoding="utf-8"?>
<!-- Generator: Adobe Illustrator 22.1.0, SVG Export Plug-In . SVG Version: 6.00 Build 0)  -->
<svg version="1.1" id="Layer_1" xmlns="http://www.w3.org/2000/svg" xmlns:xlink="http://www.w3.org/1999/xlink" x="0px" y="0px"
	 viewBox="0 0 48 48" style="enable-background:new 0 0 48 48;" xml:space="preserve">
<style type="text/css">
	.st0{fill:none;stroke:#6E4094;stroke-width:1.98;stroke-linecap:round;stroke-linejoin:round;}
	.st1{fill:none;stroke:#6E4094;stroke-width:1.98;stroke-linejoin:round;}
	.st2{fill:#6E4094;}
	.st3{fill:none;}
</style>
<title>2</title>
<g id="Easy_Returns">
	<polygon class="st0" points="16.8,46.7 0.9,37.1 0.9,18.7 16.8,28.3 	"/>
	<polygon class="st0" points="32.7,18.9 16.8,28.3 16.8,46.7 32.7,37.2 	"/>
	<polygon class="st0" points="16.8,9.3 0.9,18.7 16.8,28.3 32.7,18.9 	"/>
	<line class="st1" x1="9.7" y1="13.7" x2="25.5" y2="23.3"/>
	<path class="st2" d="M41.6,10.2c-3-3.2-7.1-5.4-11.5-6C30,4.2,30,4.1,30,4.1c0,0,0,0,0,0l2.5-3.6c0.1-0.1,0.1-0.3,0.1-0.4
		S32.3-0.1,32.1,0l-9.3,3.8c-0.1,0.1-0.2,0.2-0.2,0.4c0,0.1,0.1,0.1,0.1,0.1l7.9,6.2c0.1,0.1,0.3,0.1,0.4,0c0.1-0.1,0.1-0.2,0.1-0.3
		L29.8,6c0-0.1,0-0.2,0.1-0.2c0,0,0.1,0,0.1,0c10,1.5,17,10.9,15.5,20.9C44.7,31.6,42,36,38,38.9c-0.3,0.2-0.4,0.7-0.2,1l0,0
		c0.2,0.3,0.7,0.4,1,0.2c8.9-6.4,11-18.8,4.6-27.7C42.9,11.6,42.3,10.9,41.6,10.2L41.6,10.2z"/>
	<path class="st2" d="M23.4,34.4l0.7-0.4c0.8-0.4,1.3-1.3,1.4-2.2c0-0.8-0.5-1-1.4-0.5c-0.8,0.4-1.3,1.2-1.4,2.1l-0.6,0.3
		c0.1-1.3,0.9-2.4,2-3.1c1.1-0.6,2-0.4,2,0.6c0,1-0.5,1.9-1.3,2.4l0,0c1-0.5,1.6-0.2,1.6,0.8c-0.1,1.4-1,2.6-2.2,3.3
		c-1.3,0.8-2.1,0.5-2.2-0.6l0.6-0.3c0,0.8,0.7,0.9,1.6,0.4c0.9-0.5,1.4-1.3,1.5-2.3c0-0.9-0.6-1.1-1.6-0.5L23.4,35V34.4z"/>
	<path class="st2" d="M27.2,32.5c-0.1-1.9,0.7-3.8,2.3-5c1.4-0.8,2.3,0.1,2.3,2.2c0.2,2-0.7,3.8-2.3,5C28,35.6,27.2,34.8,27.2,32.5z
		 M31.2,30.2c0-1.8-0.6-2.6-1.7-2s-1.7,2.2-1.7,4s0.6,2.7,1.7,2S31.2,32,31.2,30.2L31.2,30.2z"/>
</g>
<rect class="st3" width="48" height="48"/>
</svg>
