<?xml version="1.0" encoding="utf-8"?>
<!-- Generator: Adobe Illustrator 21.0.2, SVG Export Plug-In . SVG Version: 6.00 Build 0)  -->
<svg version="1.1" id="Layer_1" xmlns="http://www.w3.org/2000/svg" xmlns:xlink="http://www.w3.org/1999/xlink" x="0px" y="0px"
	 viewBox="0 0 48 48" style="enable-background:new 0 0 48 48;" xml:space="preserve">
<style type="text/css">
	.st0{fill:#94C1FF;}
	.st1{fill:#D7E9FF;}
	.st2{fill:#FFFFFF;}
	.st3{fill:#5C9EFF;}
	.st4{fill:#116FFF;}
	.st5{fill:none;}
	.st6{fill:#656D78;}
	.st7{fill:#2287FF;}
	.st8{clip-path:url(#SVGID_5_);}
	.st9{fill:#E2584C;}
	.st10{clip-path:url(#SVGID_7_);}
	.st11{fill:#212121;}
	.st12{clip-path:url(#SVGID_9_);fill:#212121;}
	.st13{fill:#757575;}
	.st14{clip-path:url(#SVGID_10_);}
	.st15{fill:#FBBB00;}
	.st16{fill:#518EF8;}
	.st17{fill:#28B446;}
	.st18{fill:#F14336;}
	.st19{clip-path:url(#SVGID_11_);fill:#76A9EA;}
	.st20{fill-rule:evenodd;clip-rule:evenodd;fill:none;stroke:#000000;stroke-width:0.3;stroke-linecap:round;}
	.st21{fill-rule:evenodd;clip-rule:evenodd;fill:none;stroke:#000000;stroke-width:0.2314;stroke-linecap:round;}
	.st22{fill:none;stroke:#000000;stroke-width:0.3;stroke-linecap:round;}
	.st23{fill-rule:evenodd;clip-rule:evenodd;fill:none;stroke:#231F20;stroke-width:0.3;stroke-linecap:round;}
	.st24{fill-rule:evenodd;clip-rule:evenodd;fill:none;stroke:#000000;stroke-width:0.2358;stroke-linecap:round;}
	.st25{fill:#475993;}
	.st26{fill:#399CD7;}
	.st27{opacity:0.3;fill:#FFFFFF;}
	.st28{fill:none;stroke:#399CD7;stroke-width:3.1687;stroke-linecap:round;stroke-linejoin:round;stroke-miterlimit:10;}
	.st29{fill:none;stroke:#399CD7;stroke-width:1.9805;stroke-linecap:round;stroke-linejoin:round;stroke-miterlimit:10;}
	.st30{fill:none;stroke:#399CD7;stroke-width:1.5844;stroke-miterlimit:10;}
	.st31{fill:none;stroke:#399CD7;stroke-width:2.0549;stroke-linecap:round;stroke-linejoin:round;stroke-miterlimit:10;}
	.st32{fill:none;stroke:#399CD7;stroke-width:1.9233;stroke-linecap:round;stroke-linejoin:round;stroke-miterlimit:10;}
	.st33{fill:none;stroke:#399CD7;stroke-width:1.3112;stroke-linecap:round;stroke-linejoin:round;stroke-miterlimit:10;}
	.st34{fill:#443C8E;}
	.st35{fill:#F9F9FA;}
	.st36{fill:#E7424F;}
	.st37{fill:#399CD7;stroke:#399CD7;stroke-width:1.1883;stroke-linecap:square;stroke-linejoin:round;stroke-miterlimit:10;}
	.st38{fill:none;stroke:#399CD7;stroke-width:4.7531;stroke-linecap:round;stroke-linejoin:round;stroke-miterlimit:10;}
	.st39{fill:none;stroke:#FFFFFF;stroke-width:1.9805;stroke-linecap:round;stroke-linejoin:round;stroke-miterlimit:10;}
	.st40{fill:#3C9AD5;}
	.st41{fill:#EEEEEE;}
	.st42{fill:#BDBDBD;}
	.st43{fill:#424242;}
	.st44{fill:#D19B47;}
	.st45{fill:#FDD9A1;}
	.st46{fill:#F3C173;}
	.st47{fill:#B37D26;}
	.st48{fill:#8D5C0C;}
	.st49{fill:#473E90;}
	.st50{fill:#8F88C7;}
	.st51{fill:#645CA8;}
	.st52{fill:#31287E;}
	.st53{fill:#1D1563;}
	.st54{fill:#2F8871;}
	.st55{fill:#7CC0AD;}
	.st56{fill:#4C9E87;}
	.st57{fill:#19765D;}
	.st58{fill:#085E46;}
	.st59{fill:#D3AE37;}
	.st60{fill:#FFE38C;}
	.st61{fill:#ECCA5D;}
	.st62{fill:#B08D1A;}
	.st63{fill:#8A6B04;}
	.st64{fill:#5B2E8E;}
	.st65{fill:#926FBC;}
	.st66{fill:#7147A0;}
	.st67{fill:#461A78;}
	.st68{fill:#310A5E;}
	.st69{fill:#2B5B89;}
	.st70{fill:#6B91B6;}
	.st71{fill:#436F99;}
	.st72{fill:#184673;}
	.st73{fill:#09325A;}
	.st74{fill:#383838;}
	.st75{fill:#F67C98;}
	.st76{fill:#FCDC76;}
	.st77{fill:#61B28C;}
	.st78{fill:#90CAEC;}
	.st79{fill:#E3DEDE;}
	.st80{fill:#FDBDCC;}
	.st81{fill:#F8E4A5;}
	.st82{fill:#B8D9D4;}
	.st83{fill:#8BC8ED;}
	.st84{fill:#5DB0E1;}
	.st85{fill:#1688CB;}
	.st86{fill:#0669A3;}
	.st87{fill:#F9FCFE;}
	.st88{fill:#A6D5F0;}
	.st89{fill:#F5FAFF;}
	.st90{fill:#FBFDFF;}
	.st91{fill:#F8FBFF;}
	.st92{fill:#E4DFDF;}
	.st93{fill:#F4F2F2;}
	.st94{fill:#ECE9E9;}
	.st95{fill:#FF9F00;}
	.st96{fill:#FFCF80;}
	.st97{fill:#FFB233;}
	.st98{fill:#FB641B;}
	.st99{fill:#FDB18D;}
	.st100{fill:#FC8349;}
	.st101{fill:#61B38D;}
	.st102{fill:#BADAD5;}
	.st103{fill:url(#Gradient_1_);}
	.st104{fill:url(#Gradient_2_);}
	.st105{fill:url(#Gradient_3_);}
	.st106{fill:url(#Gradient_4_);}
	.st107{fill:url(#Gradient_5_);}
	.st108{fill:url(#Gradient_6_);}
</style>
<g>
	<g id="Luxury_Quality_2_">
		<polygon class="st26" points="41,43.8 36.3,42.7 33.7,46.7 23,19.5 30.3,16.6 		"/>
		<polygon class="st26" points="7,43.8 11.8,42.9 14.3,46.7 25,19.5 17.7,16.6 		"/>
		<path class="st2" d="M12.9,40.3c-0.1,0-0.1,0-0.2,0c-0.3-0.1-0.5-0.5-0.3-0.8l4.3-11.1c0.1-0.3,0.5-0.5,0.8-0.3
			c0.3,0.1,0.5,0.5,0.3,0.8L13.5,40C13.4,40.2,13.1,40.3,12.9,40.3z"/>
		<path class="st2" d="M34.5,39.1c-0.2,0-0.5-0.1-0.6-0.4l-4.3-11.1c-0.1-0.3,0-0.7,0.3-0.8c0.3-0.1,0.6,0,0.8,0.3l4.3,11.1
			c0.1,0.3,0,0.7-0.3,0.8C34.7,39.1,34.6,39.1,34.5,39.1z"/>
		<g>
			<circle class="st2" cx="22.9" cy="15.7" r="13.4"/>
			<path class="st26" d="M22.9,30.2c-8,0-14.4-6.5-14.4-14.4c0-8,6.5-14.4,14.4-14.4s14.4,6.5,14.4,14.4
				C37.3,23.7,30.9,30.2,22.9,30.2z M22.9,3.3c-6.9,0-12.4,5.6-12.4,12.4S16,28.2,22.9,28.2s12.4-5.6,12.4-12.4S29.8,3.3,22.9,3.3z"
				/>
		</g>
		<polygon class="st26" points="22.9,8.7 25.2,13.4 30.3,14.1 26.6,17.7 27.5,22.8 22.9,20.4 18.3,22.8 19.2,17.7 15.5,14.1 
			20.6,13.4 		"/>
	</g>
	<rect y="0" class="st5" width="48" height="48"/>
</g>
</svg>
