<svg width="14" height="14" viewBox="0 0 14 14" fill="none" xmlns="http://www.w3.org/2000/svg">
<path fill-rule="evenodd" clip-rule="evenodd" d="M1.16663 3.5C1.16663 3.17783 1.42779 2.91667 1.74996 2.91667H12.25C12.5721 2.91667 12.8333 3.17783 12.8333 3.5C12.8333 3.82217 12.5721 4.08333 12.25 4.08333H1.74996C1.42779 4.08333 1.16663 3.82217 1.16663 3.5Z" fill="#616161"/>
<path fill-rule="evenodd" clip-rule="evenodd" d="M5.83329 1.75C5.51113 1.75 5.24996 2.01117 5.24996 2.33333V3.5C5.24996 3.82217 4.98879 4.08333 4.66663 4.08333C4.34446 4.08333 4.08329 3.82217 4.08329 3.5V2.33333C4.08329 1.36684 4.86679 0.583334 5.83329 0.583334H8.16663C9.13312 0.583334 9.91663 1.36684 9.91663 2.33333V3.5C9.91663 3.82217 9.65546 4.08333 9.33329 4.08333C9.01113 4.08333 8.74996 3.82217 8.74996 3.5V2.33333C8.74996 2.01117 8.48879 1.75 8.16663 1.75H5.83329ZM2.91663 2.91667C3.23879 2.91667 3.49996 3.17783 3.49996 3.5V11.6667C3.49996 11.9888 3.76113 12.25 4.08329 12.25H9.91663C10.2388 12.25 10.5 11.9888 10.5 11.6667V3.5C10.5 3.17783 10.7611 2.91667 11.0833 2.91667C11.4055 2.91667 11.6666 3.17783 11.6666 3.5V11.6667C11.6666 12.6332 10.8831 13.4167 9.91663 13.4167H4.08329C3.11679 13.4167 2.33329 12.6332 2.33329 11.6667V3.5C2.33329 3.17783 2.59446 2.91667 2.91663 2.91667Z" fill="#616161"/>
<path fill-rule="evenodd" clip-rule="evenodd" d="M5.83329 5.83333C6.15546 5.83333 6.41663 6.0945 6.41663 6.41667V9.91667C6.41663 10.2388 6.15546 10.5 5.83329 10.5C5.51113 10.5 5.24996 10.2388 5.24996 9.91667V6.41667C5.24996 6.0945 5.51113 5.83333 5.83329 5.83333Z" fill="#616161"/>
<path fill-rule="evenodd" clip-rule="evenodd" d="M8.16663 5.83333C8.48879 5.83333 8.74996 6.0945 8.74996 6.41667V9.91667C8.74996 10.2388 8.48879 10.5 8.16663 10.5C7.84446 10.5 7.58329 10.2388 7.58329 9.91667V6.41667C7.58329 6.0945 7.84446 5.83333 8.16663 5.83333Z" fill="#616161"/>
</svg>
