<?xml version="1.0" encoding="utf-8"?>
<!-- Generator: Adobe Illustrator 21.0.2, SVG Export Plug-In . SVG Version: 6.00 Build 0)  -->
<svg version="1.1" id="Layer_1" xmlns="http://www.w3.org/2000/svg" xmlns:xlink="http://www.w3.org/1999/xlink" x="0px" y="0px"
	 viewBox="0 0 48 48" style="enable-background:new 0 0 48 48;" xml:space="preserve">
<style type="text/css">
	.st0{fill:#CB2027;}
</style>
<title>1</title>
<path class="st0" d="M24,0C10.7,0,0,10.7,0,24c0,13.3,10.7,24,24,24s24-10.7,24-24C48,10.7,37.3,0,24,0z M25.9,32.1
	c-1.8-0.1-2.6-1-4-1.9c-0.8,4.1-1.7,8-4.6,10.1c-0.9-6.2,1.3-10.9,2.3-15.8c-1.7-2.9,0.2-8.7,3.8-7.2c4.4,1.8-3.8,10.7,1.7,11.8
	c5.8,1.2,8.2-10.1,4.6-13.7c-5.2-5.3-15.1-0.1-13.9,7.4c0.3,1.8,2.2,2.4,0.8,5c-3.3-0.7-4.3-3.4-4.2-6.9c0.2-5.7,5.1-9.7,10.1-10.3
	c6.3-0.7,12.1,2.3,12.9,8.2C36.4,25.5,32.6,32.7,25.9,32.1z"/>
</svg>
